/eos/user/z/zhelun/MCsamples/ttbar/mc16_13TeV.410470.PhPy8EG_A14_ttbar_hdamp258p75_nonallhad.deriv.DAOD_STDM4.e6337_s3126_r9364_p4097/DAOD_STDM4.20932902._000072.pool.root.1
/eos/user/z/zhelun/MCsamples/ttbar/mc16_13TeV.410470.PhPy8EG_A14_ttbar_hdamp258p75_nonallhad.deriv.DAOD_STDM4.e6337_s3126_r9364_p4097/DAOD_STDM4.20932902._000310.pool.root.1
/eos/user/z/zhelun/MCsamples/ttbar/mc16_13TeV.410470.PhPy8EG_A14_ttbar_hdamp258p75_nonallhad.deriv.DAOD_STDM4.e6337_s3126_r9364_p4097/DAOD_STDM4.20932902._000419.pool.root.1
/eos/user/z/zhelun/MCsamples/ttbar/mc16_13TeV.410470.PhPy8EG_A14_ttbar_hdamp258p75_nonallhad.deriv.DAOD_STDM4.e6337_s3126_r9364_p4097/DAOD_STDM4.20932902._000462.pool.root.1
/eos/user/z/zhelun/MCsamples/ttbar/mc16_13TeV.410470.PhPy8EG_A14_ttbar_hdamp258p75_nonallhad.deriv.DAOD_STDM4.e6337_s3126_r9364_p4097/DAOD_STDM4.20932902._000507.pool.root.1
/eos/user/z/zhelun/MCsamples/ttbar/mc16_13TeV.410470.PhPy8EG_A14_ttbar_hdamp258p75_nonallhad.deriv.DAOD_STDM4.e6337_s3126_r9364_p4097/DAOD_STDM4.20932902._000530.pool.root.1
/eos/user/z/zhelun/MCsamples/ttbar/mc16_13TeV.410470.PhPy8EG_A14_ttbar_hdamp258p75_nonallhad.deriv.DAOD_STDM4.e6337_s3126_r9364_p4097/DAOD_STDM4.20932902._000614.pool.root.1
/eos/user/z/zhelun/MCsamples/ttbar/mc16_13TeV.410470.PhPy8EG_A14_ttbar_hdamp258p75_nonallhad.deriv.DAOD_STDM4.e6337_s3126_r9364_p4097/DAOD_STDM4.20932902._000686.pool.root.1
/eos/user/z/zhelun/MCsamples/ttbar/mc16_13TeV.410470.PhPy8EG_A14_ttbar_hdamp258p75_nonallhad.deriv.DAOD_STDM4.e6337_s3126_r9364_p4097/DAOD_STDM4.20932902._000717.pool.root.1
/eos/user/z/zhelun/MCsamples/ttbar/mc16_13TeV.410470.PhPy8EG_A14_ttbar_hdamp258p75_nonallhad.deriv.DAOD_STDM4.e6337_s3126_r9364_p4097/DAOD_STDM4.20932902._000805.pool.root.1
/eos/user/z/zhelun/MCsamples/ttbar/mc16_13TeV.410470.PhPy8EG_A14_ttbar_hdamp258p75_nonallhad.deriv.DAOD_STDM4.e6337_s3126_r9364_p4097/DAOD_STDM4.20932902._000836.pool.root.1
/eos/user/z/zhelun/MCsamples/ttbar/mc16_13TeV.410470.PhPy8EG_A14_ttbar_hdamp258p75_nonallhad.deriv.DAOD_STDM4.e6337_s3126_r9364_p4097/DAOD_STDM4.20932902._000881.pool.root.1
/eos/user/z/zhelun/MCsamples/ttbar/mc16_13TeV.410470.PhPy8EG_A14_ttbar_hdamp258p75_nonallhad.deriv.DAOD_STDM4.e6337_s3126_r9364_p4097/DAOD_STDM4.20932904._000081.pool.root.1
/eos/user/z/zhelun/MCsamples/ttbar/mc16_13TeV.410470.PhPy8EG_A14_ttbar_hdamp258p75_nonallhad.deriv.DAOD_STDM4.e6337_s3126_r9364_p4097/DAOD_STDM4.20932904._000160.pool.root.1
/eos/user/z/zhelun/MCsamples/ttbar/mc16_13TeV.410470.PhPy8EG_A14_ttbar_hdamp258p75_nonallhad.deriv.DAOD_STDM4.e6337_s3126_r9364_p4097/DAOD_STDM4.20932904._000234.pool.root.1
/eos/user/z/zhelun/MCsamples/ttbar/mc16_13TeV.410470.PhPy8EG_A14_ttbar_hdamp258p75_nonallhad.deriv.DAOD_STDM4.e6337_s3126_r9364_p4097/DAOD_STDM4.20932904._000251.pool.root.1
/eos/user/z/zhelun/MCsamples/ttbar/mc16_13TeV.410470.PhPy8EG_A14_ttbar_hdamp258p75_nonallhad.deriv.DAOD_STDM4.e6337_s3126_r9364_p4097/DAOD_STDM4.20932904._000574.pool.root.1
/eos/user/z/zhelun/MCsamples/ttbar/mc16_13TeV.410470.PhPy8EG_A14_ttbar_hdamp258p75_nonallhad.deriv.DAOD_STDM4.e6337_s3126_r9364_p4097/DAOD_STDM4.20932904._000598.pool.root.1
/eos/user/z/zhelun/MCsamples/ttbar/mc16_13TeV.410470.PhPy8EG_A14_ttbar_hdamp258p75_nonallhad.deriv.DAOD_STDM4.e6337_s3126_r9364_p4097/DAOD_STDM4.20932904._000625.pool.root.1
/eos/user/z/zhelun/MCsamples/ttbar/mc16_13TeV.410470.PhPy8EG_A14_ttbar_hdamp258p75_nonallhad.deriv.DAOD_STDM4.e6337_s3126_r9364_p4097/DAOD_STDM4.20932904._000688.pool.root.1
