/eos/user/z/zhelun/MCsamples/Wjets/mc16_13TeV.364170.Sherpa_221_NNPDF30NNLO_Wenu_MAXHTPTV0_70_CVetoBVeto.deriv.DAOD_STDM4.e5340_s3126_r9364_p4097/DAOD_STDM4.20932225._000001.pool.root.1
/eos/user/z/zhelun/MCsamples/Wjets/mc16_13TeV.364170.Sherpa_221_NNPDF30NNLO_Wenu_MAXHTPTV0_70_CVetoBVeto.deriv.DAOD_STDM4.e5340_s3126_r9364_p4097/DAOD_STDM4.20932225._000002.pool.root.1
/eos/user/z/zhelun/MCsamples/Wjets/mc16_13TeV.364170.Sherpa_221_NNPDF30NNLO_Wenu_MAXHTPTV0_70_CVetoBVeto.deriv.DAOD_STDM4.e5340_s3126_r9364_p4097/DAOD_STDM4.20932225._000003.pool.root.1
/eos/user/z/zhelun/MCsamples/Wjets/mc16_13TeV.364170.Sherpa_221_NNPDF30NNLO_Wenu_MAXHTPTV0_70_CVetoBVeto.deriv.DAOD_STDM4.e5340_s3126_r9364_p4097/DAOD_STDM4.20932225._000004.pool.root.1
/eos/user/z/zhelun/MCsamples/Wjets/mc16_13TeV.364170.Sherpa_221_NNPDF30NNLO_Wenu_MAXHTPTV0_70_CVetoBVeto.deriv.DAOD_STDM4.e5340_s3126_r9364_p4097/DAOD_STDM4.20932225._000005.pool.root.1
/eos/user/z/zhelun/MCsamples/Wjets/mc16_13TeV.364170.Sherpa_221_NNPDF30NNLO_Wenu_MAXHTPTV0_70_CVetoBVeto.deriv.DAOD_STDM4.e5340_s3126_r9364_p4097/DAOD_STDM4.20932225._000006.pool.root.1
/eos/user/z/zhelun/MCsamples/Wjets/mc16_13TeV.364170.Sherpa_221_NNPDF30NNLO_Wenu_MAXHTPTV0_70_CVetoBVeto.deriv.DAOD_STDM4.e5340_s3126_r9364_p4097/DAOD_STDM4.20932225._000007.pool.root.1
/eos/user/z/zhelun/MCsamples/Wjets/mc16_13TeV.364170.Sherpa_221_NNPDF30NNLO_Wenu_MAXHTPTV0_70_CVetoBVeto.deriv.DAOD_STDM4.e5340_s3126_r9364_p4097/DAOD_STDM4.20932225._000008.pool.root.1
/eos/user/z/zhelun/MCsamples/Wjets/mc16_13TeV.364170.Sherpa_221_NNPDF30NNLO_Wenu_MAXHTPTV0_70_CVetoBVeto.deriv.DAOD_STDM4.e5340_s3126_r9364_p4097/DAOD_STDM4.20932225._000009.pool.root.1
/eos/user/z/zhelun/MCsamples/Wjets/mc16_13TeV.364170.Sherpa_221_NNPDF30NNLO_Wenu_MAXHTPTV0_70_CVetoBVeto.deriv.DAOD_STDM4.e5340_s3126_r9364_p4097/DAOD_STDM4.20932225._000010.pool.root.1
/eos/user/z/zhelun/MCsamples/Wjets/mc16_13TeV.364170.Sherpa_221_NNPDF30NNLO_Wenu_MAXHTPTV0_70_CVetoBVeto.deriv.DAOD_STDM4.e5340_s3126_r9364_p4097/DAOD_STDM4.20932225._000011.pool.root.1
/eos/user/z/zhelun/MCsamples/Wjets/mc16_13TeV.364170.Sherpa_221_NNPDF30NNLO_Wenu_MAXHTPTV0_70_CVetoBVeto.deriv.DAOD_STDM4.e5340_s3126_r9364_p4097/DAOD_STDM4.20932225._000012.pool.root.1
/eos/user/z/zhelun/MCsamples/Wjets/mc16_13TeV.364170.Sherpa_221_NNPDF30NNLO_Wenu_MAXHTPTV0_70_CVetoBVeto.deriv.DAOD_STDM4.e5340_s3126_r9364_p4097/DAOD_STDM4.20932225._000013.pool.root.1
/eos/user/z/zhelun/MCsamples/Wjets/mc16_13TeV.364170.Sherpa_221_NNPDF30NNLO_Wenu_MAXHTPTV0_70_CVetoBVeto.deriv.DAOD_STDM4.e5340_s3126_r9364_p4097/DAOD_STDM4.20932225._000014.pool.root.1
/eos/user/z/zhelun/MCsamples/Wjets/mc16_13TeV.364170.Sherpa_221_NNPDF30NNLO_Wenu_MAXHTPTV0_70_CVetoBVeto.deriv.DAOD_STDM4.e5340_s3126_r9364_p4097/DAOD_STDM4.20932225._000015.pool.root.1
/eos/user/z/zhelun/MCsamples/Wjets/mc16_13TeV.364170.Sherpa_221_NNPDF30NNLO_Wenu_MAXHTPTV0_70_CVetoBVeto.deriv.DAOD_STDM4.e5340_s3126_r9364_p4097/DAOD_STDM4.20932225._000016.pool.root.1
/eos/user/z/zhelun/MCsamples/Wjets/mc16_13TeV.364170.Sherpa_221_NNPDF30NNLO_Wenu_MAXHTPTV0_70_CVetoBVeto.deriv.DAOD_STDM4.e5340_s3126_r9364_p4097/DAOD_STDM4.20932225._000017.pool.root.1
/eos/user/z/zhelun/MCsamples/Wjets/mc16_13TeV.364170.Sherpa_221_NNPDF30NNLO_Wenu_MAXHTPTV0_70_CVetoBVeto.deriv.DAOD_STDM4.e5340_s3126_r9364_p4097/DAOD_STDM4.20932225._000018.pool.root.1
/eos/user/z/zhelun/MCsamples/Wjets/mc16_13TeV.364170.Sherpa_221_NNPDF30NNLO_Wenu_MAXHTPTV0_70_CVetoBVeto.deriv.DAOD_STDM4.e5340_s3126_r9364_p4097/DAOD_STDM4.20932225._000019.pool.root.1
/eos/user/z/zhelun/MCsamples/Wjets/mc16_13TeV.364170.Sherpa_221_NNPDF30NNLO_Wenu_MAXHTPTV0_70_CVetoBVeto.deriv.DAOD_STDM4.e5340_s3126_r9364_p4097/DAOD_STDM4.20932225._000020.pool.root.1
/eos/user/z/zhelun/MCsamples/Wjets/mc16_13TeV.364170.Sherpa_221_NNPDF30NNLO_Wenu_MAXHTPTV0_70_CVetoBVeto.deriv.DAOD_STDM4.e5340_s3126_r9364_p4097/DAOD_STDM4.20932225._000021.pool.root.1
/eos/user/z/zhelun/MCsamples/Wjets/mc16_13TeV.364170.Sherpa_221_NNPDF30NNLO_Wenu_MAXHTPTV0_70_CVetoBVeto.deriv.DAOD_STDM4.e5340_s3126_r9364_p4097/DAOD_STDM4.20932225._000022.pool.root.1
/eos/user/z/zhelun/MCsamples/Wjets/mc16_13TeV.364170.Sherpa_221_NNPDF30NNLO_Wenu_MAXHTPTV0_70_CVetoBVeto.deriv.DAOD_STDM4.e5340_s3126_r9364_p4097/DAOD_STDM4.20932225._000023.pool.root.1
/eos/user/z/zhelun/MCsamples/Wjets/mc16_13TeV.364170.Sherpa_221_NNPDF30NNLO_Wenu_MAXHTPTV0_70_CVetoBVeto.deriv.DAOD_STDM4.e5340_s3126_r9364_p4097/DAOD_STDM4.20932225._000024.pool.root.1
/eos/user/z/zhelun/MCsamples/Wjets/mc16_13TeV.364170.Sherpa_221_NNPDF30NNLO_Wenu_MAXHTPTV0_70_CVetoBVeto.deriv.DAOD_STDM4.e5340_s3126_r9364_p4097/DAOD_STDM4.20932225._000025.pool.root.1
