/eos/user/z/zhelun/MCsamples/Zy/zee/mc16_13TeV.700011.Sh_228_eegamma_pty7_EnhMaxpTVpTy.deriv.DAOD_STDM4.e7947_s3126_r9364_p4097/DAOD_STDM4.21353807._000020.pool.root.1
/eos/user/z/zhelun/MCsamples/Zy/zee/mc16_13TeV.700011.Sh_228_eegamma_pty7_EnhMaxpTVpTy.deriv.DAOD_STDM4.e7947_s3126_r9364_p4097/DAOD_STDM4.21353807._000024.pool.root.1
/eos/user/z/zhelun/MCsamples/Zy/zee/mc16_13TeV.700011.Sh_228_eegamma_pty7_EnhMaxpTVpTy.deriv.DAOD_STDM4.e7947_s3126_r9364_p4097/DAOD_STDM4.21353807._000034.pool.root.1
/eos/user/z/zhelun/MCsamples/Zy/zee/mc16_13TeV.700011.Sh_228_eegamma_pty7_EnhMaxpTVpTy.deriv.DAOD_STDM4.e7947_s3126_r9364_p4097/DAOD_STDM4.21353807._000044.pool.root.1
/eos/user/z/zhelun/MCsamples/Zy/zee/mc16_13TeV.700011.Sh_228_eegamma_pty7_EnhMaxpTVpTy.deriv.DAOD_STDM4.e7947_s3126_r9364_p4097/DAOD_STDM4.21353807._000047.pool.root.1
/eos/user/z/zhelun/MCsamples/Zy/zee/mc16_13TeV.700011.Sh_228_eegamma_pty7_EnhMaxpTVpTy.deriv.DAOD_STDM4.e7947_s3126_r9364_p4097/DAOD_STDM4.21353807._000054.pool.root.1
/eos/user/z/zhelun/MCsamples/Zy/zee/mc16_13TeV.700011.Sh_228_eegamma_pty7_EnhMaxpTVpTy.deriv.DAOD_STDM4.e7947_s3126_r9364_p4097/DAOD_STDM4.21353807._000056.pool.root.1
/eos/user/z/zhelun/MCsamples/Zy/zee/mc16_13TeV.700011.Sh_228_eegamma_pty7_EnhMaxpTVpTy.deriv.DAOD_STDM4.e7947_s3126_r9364_p4097/DAOD_STDM4.21353807._000076.pool.root.1
/eos/user/z/zhelun/MCsamples/Zy/zee/mc16_13TeV.700011.Sh_228_eegamma_pty7_EnhMaxpTVpTy.deriv.DAOD_STDM4.e7947_s3126_r9364_p4097/DAOD_STDM4.21353807._000079.pool.root.1
/eos/user/z/zhelun/MCsamples/Zy/zee/mc16_13TeV.700011.Sh_228_eegamma_pty7_EnhMaxpTVpTy.deriv.DAOD_STDM4.e7947_s3126_r9364_p4097/DAOD_STDM4.21353807._000083.pool.root.1
/eos/user/z/zhelun/MCsamples/Zy/zee/mc16_13TeV.700011.Sh_228_eegamma_pty7_EnhMaxpTVpTy.deriv.DAOD_STDM4.e7947_s3126_r9364_p4097/DAOD_STDM4.21353807._000085.pool.root.1
/eos/user/z/zhelun/MCsamples/Zy/zee/mc16_13TeV.700011.Sh_228_eegamma_pty7_EnhMaxpTVpTy.deriv.DAOD_STDM4.e7947_s3126_r9364_p4097/DAOD_STDM4.21353807._000086.pool.root.1
/eos/user/z/zhelun/MCsamples/Zy/zee/mc16_13TeV.700011.Sh_228_eegamma_pty7_EnhMaxpTVpTy.deriv.DAOD_STDM4.e7947_s3126_r9364_p4097/DAOD_STDM4.21353811._000011.pool.root.1
/eos/user/z/zhelun/MCsamples/Zy/zee/mc16_13TeV.700011.Sh_228_eegamma_pty7_EnhMaxpTVpTy.deriv.DAOD_STDM4.e7947_s3126_r9364_p4097/DAOD_STDM4.21353811._000016.pool.root.1
/eos/user/z/zhelun/MCsamples/Zy/zee/mc16_13TeV.700011.Sh_228_eegamma_pty7_EnhMaxpTVpTy.deriv.DAOD_STDM4.e7947_s3126_r9364_p4097/DAOD_STDM4.21353811._000018.pool.root.1
/eos/user/z/zhelun/MCsamples/Zy/zee/mc16_13TeV.700011.Sh_228_eegamma_pty7_EnhMaxpTVpTy.deriv.DAOD_STDM4.e7947_s3126_r9364_p4097/DAOD_STDM4.21353811._000021.pool.root.1
/eos/user/z/zhelun/MCsamples/Zy/zee/mc16_13TeV.700011.Sh_228_eegamma_pty7_EnhMaxpTVpTy.deriv.DAOD_STDM4.e7947_s3126_r9364_p4097/DAOD_STDM4.21353811._000022.pool.root.1
/eos/user/z/zhelun/MCsamples/Zy/zee/mc16_13TeV.700011.Sh_228_eegamma_pty7_EnhMaxpTVpTy.deriv.DAOD_STDM4.e7947_s3126_r9364_p4097/DAOD_STDM4.21353811._000027.pool.root.1
/eos/user/z/zhelun/MCsamples/Zy/zee/mc16_13TeV.700011.Sh_228_eegamma_pty7_EnhMaxpTVpTy.deriv.DAOD_STDM4.e7947_s3126_r9364_p4097/DAOD_STDM4.21353811._000028.pool.root.1
/eos/user/z/zhelun/MCsamples/Zy/zee/mc16_13TeV.700011.Sh_228_eegamma_pty7_EnhMaxpTVpTy.deriv.DAOD_STDM4.e7947_s3126_r9364_p4097/DAOD_STDM4.21353811._000033.pool.root.1
